{
  "cc": 1609092895499,
  "name": "Rowan Dante Olson Schmidt",
  "birthDate": {
    "year": 1969,
    "month": 11,
    "dayOfMonth": 31,
    "hourOfDay": 0,
    "minute": 0,
    "second": 0
  },
  "email": "R_Perry@colombiapay.com",
  "cellPhone": 2269039369,
  "password": "XdH57X@#$iP7VH"
}